Size And Power of Scott-Knott for Multivariate and Univariate case
…
# # About 1.5 hours.

univariate.size.data = read_csv('uni_size.csv')

Rows: 121 Columns: 3
── Column specification ────────────────────────────────────────────────────────
Delimiter: ","
dbl (3): n1, n2, size

ℹ Use `spec()` to retrieve the full column specification for this data.
ℹ Specify the column types or set `show_col_types = FALSE` to quiet this message.

univariate.size.data

# A tibble: 121 × 3
      n1    n2  size
   <dbl> <dbl> <dbl>
 1     2     2 0.052
 2     3     2 0.063
 3     4     2 0.053
 4     5     2 0.057
 5     6     2 0.045
 6     7     2 0.03 
 7     8     2 0.044
 8     9     2 0.057
 9    10     2 0.051
10    11     2 0.047
# … with 111 more rows
…
univariate.power.data = read_csv('uni_power.csv')

Rows: 384 Columns: 5
── Column specification ────────────────────────────────────────────────────────
Delimiter: ","
dbl (5): n1, n2, delta, delta_scales, power

ℹ Use `spec()` to retrieve the full column specification for this data.
ℹ Specify the column types or set `show_col_types = FALSE` to quiet this message.

univariate.power.data

# A tibble: 384 × 5
      n1    n2 delta delta_scales power
   <dbl> <dbl> <dbl>        <dbl> <dbl>
 1     2     2  1.52        0.500 0.066
 2     3     2  1.52        0.500 0.06 
 3     4     2  1.52        0.500 0.054
 4     5     2  1.52        0.500 0.084
 5     6     2  1.52        0.500 0.056
 6     7     2  1.52        0.500 0.068
 7     8     2  1.52        0.500 0.05 
 8     9     2  1.52        0.500 0.056
 9     2     3  1.52        0.500 0.06 
10     3     3  1.52        0.500 0.054
# … with 374 more rows
…
multivariate.power.data = read_csv('multi_power.csv')

Rows: 294 Columns: 4
── Column specification ────────────────────────────────────────────────────────
Delimiter: ","
dbl (4): n1, n2, delta_scales, power

ℹ Use `spec()` to retrieve the full column specification for this data.
ℹ Specify the column types or set `show_col_types = FALSE` to quiet this message.

multivariate.power.data

# A tibble: 294 × 4
      n1    n2 delta_scales power
   <dbl> <dbl>        <dbl> <dbl>
 1     8     8          0.5 0.201
 2     9     8          0.5 0.199
 3    10     8          0.5 0.229
 4    11     8          0.5 0.255
 5    12     8          0.5 0.263
 6    13     8          0.5 0.276
 7    14     8          0.5 0.319
 8     8     9          0.5 0.2  
 9     9     9          0.5 0.236
10    10     9          0.5 0.279
# … with 284 more rows
…
