Speed Comparison between Developed partition algorithms
…
time_data = read_csv('partition_times.csv')

Rows: 230 Columns: 4
── Column specification ────────────────────────────────────────────────────────
Delimiter: ","
dbl (4): k, part_R.time, part_C.time, part_fast.time

ℹ Use `spec()` to retrieve the full column specification for this data.
ℹ Specify the column types or set `show_col_types = FALSE` to quiet this message.

time_data

# A tibble: 230 × 4
       k part_R.time part_C.time part_fast.time
   <dbl>       <dbl>       <dbl>          <dbl>
 1     2       0.390       0.430              0
 2     2       0.330       0.25               0
 3     2       0.350       0.230              0
 4     2       0.330       0.230              0
 5     2       0.330       0.220              0
 6     2       0.340       0.240              0
 7     2       0.360       0.230              0
 8     2       0.320       0.230              0
 9     2       0.340       0.220              0
10     2       0.340       0.230              0
# … with 220 more rows
…
